%YAML 1.1
%TAG !u! tag:unity3d.com,2011:
--- !u!21 &2100000
Material:
  serializedVersion: 3
  m_ObjectHideFlags: 0
  m_PrefabParentObject: {fileID: 0}
  m_PrefabInternal: {fileID: 0}
  m_Name: HexaRocks
  m_Shader: {fileID: 4800000, guid: 5ac0130d04e6ceb408b81b5c01ffbff3, type: 1}
  m_SavedProperties:
    serializedVersion: 2
    m_TexEnvs:
      data:
        first:
          name: _MainTex
        second:
          m_Texture: {fileID: 2800000, guid: 10b85e4dda0c1534fa2b3d84e3543923, type: 1}
          m_Scale: {x: 1, y: 1}
          m_Offset: {x: 1, y: 1}
      data:
        first:
          name: _BumpMap
        second:
          m_Texture: {fileID: 2800000, guid: bb8a03b6726ac0e4e85ddf4db5a65ae5, type: 1}
          m_Scale: {x: 2, y: 2}
          m_Offset: {x: 1, y: 1}
      data:
        first:
          name: _SpecularTex
        second:
          m_Texture: {fileID: 2800000, guid: 8d3ce6f44bb883b459e1ffa9e9e28fa9, type: 1}
          m_Scale: {x: 0, y: 1}
          m_Offset: {x: 1, y: 1}
      data:
        first:
          name: _RampTex
        second:
          m_Texture: {fileID: 2800000, guid: 8c24ce677edcdb04481dc0b4e9924ca2, type: 1}
          m_Scale: {x: 1, y: 1}
          m_Offset: {x: 0, y: 0}
    m_Floats:
      data:
        first:
          name: _RimPower
        second: 3.8999424
      data:
        first:
          name: _IllumPower
        second: 0
    m_Colors:
      data:
        first:
          name: _Color
        second: {r: .436996371, g: .41073221, b: .412954867, a: 1}
      data:
        first:
          name: _RimColor
        second: {r: .149792731, g: .130670935, b: .120705694, a: 1}
      data:
        first:
          name: _Tint
        second: {r: 1, g: 1, b: 1, a: 1}
      data:
        first:
          name: _ChannelA
        second: {r: .503019094, g: .435438216, b: .404004037, a: 1}
      data:
        first:
          name: _ChannelB
        second: {r: .400189102, g: .400189102, b: .400189102, a: 1}
      data:
        first:
          name: _ChannelC
        second: {r: .400298893, g: .400298893, b: .400298893, a: 1}
      data:
        first:
          name: _TintColor
        second: {r: .630903959, g: .591622174, b: .609636128, a: .5}
      data:
        first:
          name: _IllumTint
        second: {r: 1, g: 1, b: 1, a: 1}
