%YAML 1.1
%TAG !u! tag:unity3d.com,2011:
--- !u!21 &2100000
Material:
  serializedVersion: 3
  m_ObjectHideFlags: 0
  m_PrefabParentObject: {fileID: 0}
  m_PrefabInternal: {fileID: 0}
  m_Name: Oscillator
  m_Shader: {fileID: 10750, guid: 0000000000000000f000000000000000, type: 0}
  m_SavedProperties:
    serializedVersion: 2
    m_TexEnvs:
      data:
        first:
          name: _MainTex
        second:
          m_Texture: {fileID: 2800000, guid: 2df55f4faef604c4ca1e632731324996, type: 1}
          m_Scale: {x: 1, y: 1}
          m_Offset: {x: 0, y: 0}
      data:
        first:
          name: _BumpMap
        second:
          m_Texture: {fileID: 2800000, guid: 4b8d081e9d114c7f1100f5ab44295342, type: 1}
          m_Scale: {x: 1, y: 1}
          m_Offset: {x: 0, y: 0}
      data:
        first:
          name: _Cube
        second:
          m_Texture: {fileID: 8900000, guid: 51e3f49dbd110a7011005aba44295342, type: 2}
          m_Scale: {x: 1, y: 1}
          m_Offset: {x: 0, y: 0}
      data:
        first:
          name: _RefractTex
        second:
          m_Texture: {fileID: 8900000, guid: 51e3f49dbd110a7011005aba44295342, type: 2}
          m_Scale: {x: 1, y: 1}
          m_Offset: {x: 0, y: 0}
      data:
        first:
          name: _ReflectTex
        second:
          m_Texture: {fileID: 8900000, guid: 78822f37679ff4ebbbe3619a758b5c7d, type: 2}
          m_Scale: {x: 1, y: 1}
          m_Offset: {x: 0, y: 0}
    m_Floats:
      data:
        first:
          name: _Shininess
        second: 1
      data:
        first:
          name: _InvFade
        second: 1
      data:
        first:
          name: _BumpAmt
        second: 57.7611961
    m_Colors:
      data:
        first:
          name: _Color
        second: {r: 0, g: 0, b: 0, a: 0}
      data:
        first:
          name: _SpecColor
        second: {r: 1, g: 1, b: 1, a: 1}
      data:
        first:
          name: _TintColor
        second: {r: 1, g: .188811198, b: 0, a: .772549033}
      data:
        first:
          name: _ReflectColor
        second: {r: 1, g: .327622056, b: .994782984, a: 1}
