%YAML 1.1
%TAG !u! tag:unity3d.com,2011:
--- !u!21 &2100000
Material:
  serializedVersion: 3
  m_ObjectHideFlags: 0
  m_PrefabParentObject: {fileID: 0}
  m_PrefabInternal: {fileID: 0}
  m_Name: PistonArc
  m_Shader: {fileID: 4800000, guid: 25d7e81d44396494f93ee82f8257384b, type: 1}
  m_SavedProperties:
    serializedVersion: 2
    m_TexEnvs:
      data:
        first:
          name: _MainTex
        second:
          m_Texture: {fileID: 2800000, guid: edfb7f839d2964cb1bbfe4d099fed224, type: 1}
          m_Scale: {x: 3, y: 1}
          m_Offset: {x: 6518.96338, y: 0}
      data:
        first:
          name: _BumpMap
        second:
          m_Texture: {fileID: 0}
          m_Scale: {x: 1, y: 1}
          m_Offset: {x: 0, y: 0}
    m_Floats:
      data:
        first:
          name: _Cutoff
        second: .814006865
      data:
        first:
          name: _Shininess
        second: .078125
      data:
        first:
          name: _InvFade
        second: 3
      data:
        first:
          name: _Fade
        second: 1
    m_Colors:
      data:
        first:
          name: _Color
        second: {r: .156716406, g: 1, b: .893852293, a: 1}
      data:
        first:
          name: _SpecColor
        second: {r: .5, g: .5, b: .5, a: 0}
      data:
        first:
          name: _TintColor
        second: {r: .570660293, g: .487167478, b: .79311353, a: .137254909}
