%YAML 1.1
%TAG !u! tag:unity3d.com,2011:
--- !u!21 &2100000
Material:
  serializedVersion: 3
  m_ObjectHideFlags: 0
  m_PrefabParentObject: {fileID: 0}
  m_PrefabInternal: {fileID: 0}
  m_Name: CrystalCoat
  m_Shader: {fileID: 4800000, guid: 510314a561a8e4556adc5fe6fca7a25e, type: 1}
  m_SavedProperties:
    serializedVersion: 2
    m_TexEnvs:
      data:
        first:
          name: _MainTex
        second:
          m_Texture: {fileID: 2800000, guid: 1a691adf9a4234aad8920f8fbd3856f7, type: 1}
          m_Scale: {x: 1, y: 1}
          m_Offset: {x: 0, y: 0}
      data:
        first:
          name: _Cube
        second:
          m_Texture: {fileID: 8900000, guid: f110f4f6562b146d5a7ca703c3148051, type: 2}
          m_Scale: {x: 1, y: 1}
          m_Offset: {x: 0, y: 0}
      data:
        first:
          name: _Reflections
        second:
          m_Texture: {fileID: 8900000, guid: 721e433ebc8014238a1562cd50e81464, type: 2}
          m_Scale: {x: 1, y: 1}
          m_Offset: {x: 0, y: 0}
    m_Floats:
      data:
        first:
          name: _Shininess
        second: .0467053466
      data:
        first:
          name: _InvFade
        second: 1
    m_Colors:
      data:
        first:
          name: _Color
        second: {r: .450963497, g: .450963497, b: .450963497, a: 1}
      data:
        first:
          name: _SpecColor
        second: {r: .364513367, g: .364513367, b: .364513367, a: 1}
      data:
        first:
          name: _TintColor
        second: {r: .64570713, g: .64570713, b: .64570713, a: 1}
      data:
        first:
          name: _ReflectColor
        second: {r: .99999994, g: .0325418077, b: 0, a: 1}
