%YAML 1.1
%TAG !u! tag:unity3d.com,2011:
--- !u!21 &2100000
Material:
  serializedVersion: 3
  m_ObjectHideFlags: 0
  m_PrefabParentObject: {fileID: 0}
  m_PrefabInternal: {fileID: 0}
  m_Name: UI_nod_general_texture_T
  m_Shader: {fileID: 10750, guid: 0000000000000000f000000000000000, type: 0}
  m_SavedProperties:
    serializedVersion: 2
    m_TexEnvs:
      data:
        first:
          name: _MainTex
        second:
          m_Texture: {fileID: 2800000, guid: ee7adcf2c9ed84effbf2a2eec994733a, type: 1}
          m_Scale: {x: 1, y: 1}
          m_Offset: {x: 0, y: 0}
    m_Floats:
      data:
        first:
          name: _Cutoff
        second: .5
      data:
        first:
          name: _Shininess
        second: .35458225
      data:
        first:
          name: _InvFade
        second: 1
    m_Colors:
      data:
        first:
          name: _Color
        second: {r: 1, g: .524475515, b: 0, a: .650980413}
      data:
        first:
          name: _SpecColor
        second: {r: .0149253607, g: .628013551, b: 1, a: 1}
      data:
        first:
          name: _Emission
        second: {r: 0, g: .477977335, b: .962686539, a: .992156863}
      data:
        first:
          name: _TintColor
        second: {r: .400000006, g: .800000012, b: 1, a: 1}
