%YAML 1.1
%TAG !u! tag:unity3d.com,2011:
--- !u!21 &2100000
Material:
  serializedVersion: 3
  m_ObjectHideFlags: 0
  m_PrefabParentObject: {fileID: 0}
  m_PrefabInternal: {fileID: 0}
  m_Name: EarthCrfaftOneMaterialDifuse
  m_Shader: {fileID: 4800000, guid: 0dd61024e431c604b98b065d182e0222, type: 3}
  m_SavedProperties:
    serializedVersion: 2
    m_TexEnvs:
      data:
        first:
          name: _MainTex
        second:
          m_Texture: {fileID: 2800000, guid: c0c186807db34f54f9c89beda726754c, type: 3}
          m_Scale: {x: 1, y: 1}
          m_Offset: {x: 0, y: 0}
      data:
        first:
          name: _BumpMap
        second:
          m_Texture: {fileID: 2800000, guid: f6c2f5e00a84bd74d93cce8183750c23, type: 3}
          m_Scale: {x: 1, y: 1}
          m_Offset: {x: 0, y: 0}
      data:
        first:
          name: _SpecularTex
        second:
          m_Texture: {fileID: 2800000, guid: cc91f4995f2754046bfc8a08735946fd, type: 3}
          m_Scale: {x: 1, y: 1}
          m_Offset: {x: 0, y: 0}
    m_Floats:
      data:
        first:
          name: _RimPower
        second: .880769193
      data:
        first:
          name: _IllumPower
        second: 0
    m_Colors:
      data:
        first:
          name: _Color
        second: {r: .800000012, g: .800000012, b: .800000012, a: 1}
      data:
        first:
          name: _RimColor
        second: {r: .505882382, g: .830706298, b: 1, a: .345098048}
      data:
        first:
          name: _IllumTint
        second: {r: 0, g: .757858753, b: .791044772, a: 1}
      data:
        first:
          name: _ChannelA
        second: {r: .270588249, g: .270588249, b: .270588249, a: 1}
      data:
        first:
          name: _ChannelB
        second: {r: 0, g: 0, b: 0, a: 1}
      data:
        first:
          name: _ChannelC
        second: {r: 0, g: 0, b: 0, a: 1}
