%YAML 1.1
%TAG !u! tag:unity3d.com,2011:
--- !u!21 &2100000
Material:
  serializedVersion: 3
  m_ObjectHideFlags: 0
  m_PrefabParentObject: {fileID: 0}
  m_PrefabInternal: {fileID: 0}
  m_Name: WorkshopYAxis
  m_Shader: {fileID: 200, guid: 0000000000000000e000000000000000, type: 0}
  m_SavedProperties:
    serializedVersion: 2
    m_TexEnvs:
      data:
        first:
          name: _MainTex
        second:
          m_Texture: {fileID: 0}
          m_Scale: {x: 1, y: 1}
          m_Offset: {x: 0, y: 0}
      data:
        first:
          name: _Illum
        second:
          m_Texture: {fileID: 0}
          m_Scale: {x: 1, y: 1}
          m_Offset: {x: 0, y: 0}
    m_Floats:
      data:
        first:
          name: _InvFade
        second: 1
      data:
        first:
          name: _EmissionLM
        second: 0
    m_Colors:
      data:
        first:
          name: _Color
        second: {r: 0, g: .5, b: .0292584896, a: 1}
      data:
        first:
          name: _TintColor
        second: {r: .0189311504, g: .5, b: 0, a: .5}
