%YAML 1.1
%TAG !u! tag:unity3d.com,2011:
--- !u!21 &2100000
Material:
  serializedVersion: 3
  m_ObjectHideFlags: 0
  m_PrefabParentObject: {fileID: 0}
  m_PrefabInternal: {fileID: 0}
  m_Name: WaterSurface
  m_Shader: {fileID: 4800000, guid: f7c071e6189364e679f9d1885b32a70b, type: 1}
  m_SavedProperties:
    serializedVersion: 2
    m_TexEnvs:
      data:
        first:
          name: _MainTex
        second:
          m_Texture: {fileID: 2800000, guid: 1232556fc2eb64470b784fe4e89e043e, type: 1}
          m_Scale: {x: 30, y: 30}
          m_Offset: {x: 0, y: 0}
      data:
        first:
          name: _BumpMap
        second:
          m_Texture: {fileID: 2800000, guid: 135870c80e4429b488cbc4a2da047b1f, type: 1}
          m_Scale: {x: 30, y: 30}
          m_Offset: {x: 0, y: 0}
      data:
        first:
          name: _Detail
        second:
          m_Texture: {fileID: 0}
          m_Scale: {x: 1, y: 1}
          m_Offset: {x: 0, y: 0}
      data:
        first:
          name: _SpecularTex
        second:
          m_Texture: {fileID: 2800000, guid: 6863de52ad08648cf9bfb86b7c9692a6, type: 1}
          m_Scale: {x: 1, y: 1}
          m_Offset: {x: 0, y: 0}
      data:
        first:
          name: _ParallaxMap
        second:
          m_Texture: {fileID: 0}
          m_Scale: {x: 1, y: 1}
          m_Offset: {x: 0, y: 0}
      data:
        first:
          name: _Cube
        second:
          m_Texture: {fileID: 8900000, guid: 4649bedd3b44f4cfe9b940a608de8e6c, type: 2}
          m_Scale: {x: 10, y: 10}
          m_Offset: {x: 0, y: 0}
      data:
        first:
          name: _RefractTex
        second:
          m_Texture: {fileID: 8900000, guid: 51e3f49dbd110a7011005aba44295342, type: 2}
          m_Scale: {x: 100, y: 100}
          m_Offset: {x: 0, y: 0}
      data:
        first:
          name: _ReflectTex
        second:
          m_Texture: {fileID: 8900000, guid: 9cda328e4b6954d70841a8a66f42ec08, type: 1}
          m_Scale: {x: 100, y: 100}
          m_Offset: {x: 0, y: 0}
      data:
        first:
          name: _NoiseTex
        second:
          m_Texture: {fileID: 2800000, guid: 7a632f967e8ad42f5bd275898151ab6a, type: 1}
          m_Scale: {x: 1, y: 1}
          m_Offset: {x: 0, y: 0}
    m_Floats:
      data:
        first:
          name: _Cutoff
        second: .5
      data:
        first:
          name: _Shininess
        second: 1
      data:
        first:
          name: _RimPower
        second: 8
      data:
        first:
          name: _IllumPower
        second: 0
      data:
        first:
          name: _Parallax
        second: .0199999996
      data:
        first:
          name: _InvFade
        second: .099253729
      data:
        first:
          name: _BumpAmt
        second: 61.1343269
      data:
        first:
          name: strength
        second: .205970153
      data:
        first:
          name: transparency
        second: .0405970141
    m_Colors:
      data:
        first:
          name: _Color
        second: {r: .328078032, g: .309808791, b: .346341968, a: 1}
      data:
        first:
          name: _SpecColor
        second: {r: .99999994, g: .99999994, b: .99999994, a: 1}
      data:
        first:
          name: _TintColor
        second: {r: .0738968775, g: .14184919, b: .233976275, a: .850000024}
      data:
        first:
          name: _RimColor
        second: {r: .084621571, g: .212699324, b: .246708632, a: 1}
      data:
        first:
          name: _Tint
        second: {r: .338121772, g: .338000387, b: .354288936, a: .5}
      data:
        first:
          name: _IllumTint
        second: {r: .388921887, g: .597824454, b: .625019908, a: 1}
      data:
        first:
          name: _ReflectColor
        second: {r: .200000003, g: .200000003, b: .200000003, a: 1}
