%YAML 1.1
%TAG !u! tag:unity3d.com,2011:
--- !u!21 &2100000
Material:
  serializedVersion: 3
  m_ObjectHideFlags: 0
  m_PrefabParentObject: {fileID: 0}
  m_PrefabInternal: {fileID: 0}
  m_Name: sg_blast5
  m_Shader: {fileID: 30, guid: 0000000000000000e000000000000000, type: 0}
  m_SavedProperties:
    serializedVersion: 2
    m_TexEnvs:
      data:
        first:
          name: _MainTex
        second:
          m_Texture: {fileID: 2800000, guid: be6aa9deeb93a48899dd9d4af2f6572b, type: 1}
          m_Scale: {x: 1, y: 1}
          m_Offset: {x: 0, y: 0}
      data:
        first:
          name: _BumpMap
        second:
          m_Texture: {fileID: 2800000, guid: d71f55ba071ed4a4ba8ec0ac1e6b3259, type: 1}
          m_Scale: {x: .5, y: .5}
          m_Offset: {x: 0, y: 0}
    m_Floats:
      data:
        first:
          name: _InvFade
        second: .145597011
      data:
        first:
          name: _BumpAmt
        second: 0
    m_Colors:
      data:
        first:
          name: _Color
        second: {r: .99999994, g: .99999994, b: .99999994, a: .0196078438}
      data:
        first:
          name: _TintColor
        second: {r: .599070191, g: .540822029, b: .619403005, a: .00784313772}
