enb_xform as xform
enb_xform local_to gaia

################################################
# energy_bridge01
################################################
energy_bridge001 . position [0,0,0]
energy_bridge001 . rotation [0,0,0]
energy_bridge001 . permissions 31
energy_bridge001 as energy_bridge
energy_bridge001 local_to enb_xform