fin_xform as xform
fin_xform local_to gaia

################################################
# fin001
################################################
fin001 . position [0,0,0]
fin001 . rotation [0,0,0]
fin001 . permissions 31
fin001 as fin
fin001 local_to fin_xform