hyperfield_xform as xform
hyperfield_xform local_to gaia

################################################
# hyperfield001
################################################
hyperfield001 . position [0,0,0]
hyperfield001 . rotation [0,0,0]
hyperfield001 . permissions 31
hyperfield001 as hyperfield
hyperfield001 local_to hyperfield_xform