jet_xform as xform
jet_xform local_to gaia

################################################
# jet001
################################################
jet001 . position [0,0,0]
jet001 . rotation [0,0,0]
jet001 . permissions 31
jet001 as jet
jet001 local_to jet_xform