widewheel_xform as xform
widewheel_xform local_to gaia

################################################
# wide_wheel001
################################################
wide_wheel001 . position [0,0,0]
wide_wheel001 . rotation [0,0,0]
wide_wheel001 . permissions 31
wide_wheel001 as wide_wheel
wide_wheel001 local_to widewheel_xform